(module BOURNS_EN14 (layer F.Cu) (tedit 54CAF0ED)
  (descr http://www.bourns.com/data/global/pdfs/em14.pdf)
  (tags "rotary, encoder, optical")
  (fp_text reference E1 (at 0 -8.89) (layer F.SilkS)
    (effects (font (size 1.00076 1.00076) (thickness 0.14986)))
  )
  (fp_text value ENCODER_QUADRATURE_PB (at 0 -11.43) (layer F.SilkS) hide
    (effects (font (size 1.00076 1.00076) (thickness 0.14986)))
  )
  (fp_line (start 0 1.778) (end -7.112 1.778) (layer F.SilkS) (width 0.14986))
  (fp_line (start -7.112 1.778) (end -7.112 -13.081) (layer F.SilkS) (width 0.14986))
  (fp_line (start -7.112 -13.081) (end 7.112 -13.081) (layer F.SilkS) (width 0.14986))
  (fp_line (start 0 1.778) (end 7.112 1.778) (layer F.SilkS) (width 0.14986))
  (fp_line (start 7.112 1.778) (end 7.112 -13.081) (layer F.SilkS) (width 0.14986))
  (pad 2 thru_hole circle (at -3.175 0) (size 1.00076 1.00076) (drill 0.64008) (layers *.Cu *.Mask F.SilkS))
  (pad 4 thru_hole circle (at -1.905 0) (size 1.00076 1.00076) (drill 0.64008) (layers *.Cu *.Mask F.SilkS))
  (pad 6 thru_hole circle (at -0.635 0) (size 1.00076 1.00076) (drill 0.64008) (layers *.Cu *.Mask F.SilkS))
  (pad 5 thru_hole circle (at 0.635 0) (size 1.00076 1.00076) (drill 0.64008) (layers *.Cu *.Mask F.SilkS))
  (pad 1 thru_hole circle (at 1.905 0) (size 1.00076 1.00076) (drill 0.64008) (layers *.Cu *.Mask F.SilkS))
  (pad 3 thru_hole circle (at 3.175 0) (size 1.00076 1.00076) (drill 0.64008) (layers *.Cu *.Mask F.SilkS))
  (pad 2 thru_hole circle (at -7.30504 -6.25094) (size 2.49936 2.49936) (drill 1.72974) (layers *.Cu *.Mask F.SilkS))
  (pad 2 thru_hole circle (at 7.30504 -6.25094) (size 2.49936 2.49936) (drill 1.72974) (layers *.Cu *.Mask F.SilkS))
  (model Z:/sync/tari/projects/kicad-library/footprints.pretty/3d/BOURNS_EN14.wrl
    (at (xyz 0 0 0))
    (scale (xyz 10 10 10))
    (rotate (xyz 0 0 0))
  )
)
