(module LED_MATRIX_8x8 (layer F.Cu) (tedit 525A17BB)
  (descr https://www.sparkfun.com/products/681)
  (fp_text reference D1 (at 14.75232 -15.00124) (layer F.SilkS)
    (effects (font (size 1.00076 1.00076) (thickness 0.14986)))
  )
  (fp_text value LED_M_8X8 (at 0 0) (layer F.SilkS) hide
    (effects (font (size 1.00076 1.00076) (thickness 0.14986)))
  )
  (fp_line (start 15.99946 15.99946) (end 15.99946 -15.99946) (layer F.SilkS) (width 0.14986))
  (fp_line (start 15.99946 -15.99946) (end -15.99946 -15.99946) (layer F.SilkS) (width 0.14986))
  (fp_line (start -15.99946 -15.99946) (end -15.99946 15.99946) (layer F.SilkS) (width 0.14986))
  (fp_line (start -15.99946 15.99946) (end 15.99946 15.99946) (layer F.SilkS) (width 0.14986))
  (pad 1 thru_hole rect (at -13.97 11.99896) (size 1.30048 1.30048) (drill 0.5969) (layers *.Cu *.Mask F.SilkS))
  (pad 2 thru_hole circle (at -11.43 11.99896) (size 1.30048 1.30048) (drill 0.5969) (layers *.Cu *.Mask F.SilkS))
  (pad 3 thru_hole circle (at -8.89 11.99896) (size 1.30048 1.30048) (drill 0.5969) (layers *.Cu *.Mask F.SilkS))
  (pad 4 thru_hole circle (at -6.35 11.99896) (size 1.30048 1.30048) (drill 0.5969) (layers *.Cu *.Mask F.SilkS))
  (pad 5 thru_hole circle (at -3.81 11.99896) (size 1.30048 1.30048) (drill 0.5969) (layers *.Cu *.Mask F.SilkS))
  (pad 6 thru_hole circle (at -1.27 11.99896) (size 1.19888 1.19888) (drill 0.5969) (layers *.Cu *.Mask F.SilkS))
  (pad 7 thru_hole circle (at 1.27 11.99896) (size 1.30048 1.30048) (drill 0.5969) (layers *.Cu *.Mask F.SilkS))
  (pad 8 thru_hole circle (at 3.81 11.99896) (size 1.30048 1.30048) (drill 0.5969) (layers *.Cu *.Mask F.SilkS))
  (pad 9 thru_hole circle (at 6.35 11.99896) (size 1.30048 1.30048) (drill 0.5969) (layers *.Cu *.Mask F.SilkS))
  (pad 10 thru_hole circle (at 8.89 11.99896) (size 1.30048 1.30048) (drill 0.5969) (layers *.Cu *.Mask F.SilkS))
  (pad 11 thru_hole circle (at 11.43 11.99896) (size 1.30048 1.30048) (drill 0.5969) (layers *.Cu *.Mask F.SilkS))
  (pad 13 thru_hole circle (at 13.97 -12.0015) (size 1.30048 1.30048) (drill 0.5969) (layers *.Cu *.Mask F.SilkS))
  (pad 14 thru_hole circle (at 11.43 -12.0015) (size 1.30048 1.30048) (drill 0.5969) (layers *.Cu *.Mask F.SilkS))
  (pad 15 thru_hole circle (at 8.89 -12.0015) (size 1.30048 1.30048) (drill 0.5969) (layers *.Cu *.Mask F.SilkS))
  (pad 16 thru_hole circle (at 6.35 -12.0015) (size 1.30048 1.30048) (drill 0.5969) (layers *.Cu *.Mask F.SilkS))
  (pad 17 thru_hole circle (at 3.81 -12.0015) (size 1.30048 1.30048) (drill 0.5969) (layers *.Cu *.Mask F.SilkS))
  (pad 18 thru_hole circle (at 1.27 -12.0015) (size 1.30048 1.30048) (drill 0.5969) (layers *.Cu *.Mask F.SilkS))
  (pad 19 thru_hole circle (at -1.27 -11.99896) (size 1.30048 1.30048) (drill 0.5969) (layers *.Cu *.Mask F.SilkS))
  (pad 20 thru_hole circle (at -3.81 -12.0015) (size 1.30048 1.30048) (drill 0.5969) (layers *.Cu *.Mask F.SilkS))
  (pad 21 thru_hole circle (at -6.35 -12.0015) (size 1.30048 1.30048) (drill 0.5969) (layers *.Cu *.Mask F.SilkS))
  (pad 22 thru_hole circle (at -8.89 -11.99896) (size 1.30048 1.30048) (drill 0.5969) (layers *.Cu *.Mask F.SilkS))
  (pad 23 thru_hole circle (at -11.43 -11.99896) (size 1.30048 1.30048) (drill 0.5969) (layers *.Cu *.Mask F.SilkS))
  (pad 12 thru_hole circle (at 13.97 11.99896) (size 1.30048 1.30048) (drill 0.5969) (layers *.Cu *.Mask F.SilkS))
  (pad 24 thru_hole circle (at -13.97 -11.99896) (size 1.30048 1.30048) (drill 0.5969) (layers *.Cu *.Mask F.SilkS))
  (model Z:/sync/tari/projects/kicad-library/footprints.pretty/3d/led_matrix_8x8.wrl
    (at (xyz 0 0 0))
    (scale (xyz 10 10 10))
    (rotate (xyz 0 0 0))
  )
)
